…
As principais funções do dplyr são: select, filter, mutate, arrange, summarize e group_by

select

Selectiona um subconjunto das colunas

dados %>% select(Sepal.Length)

## # A tibble: 150 x 1
##    Sepal.Length
##           <dbl>
##  1         5.10
##  2         4.90
##  3         4.70
##  4         4.60
##  5         5.00
##  6         5.40
##  7         4.60
##  8         5.00
##  9         4.40
## 10         4.90
## # ... with 140 more rows

dados %>% select(Sepal.Length,Sepal.Width)

## # A tibble: 150 x 2
##    Sepal.Length Sepal.Width
##           <dbl>       <dbl>
##  1         5.10        3.50
##  2         4.90        3.00
##  3         4.70        3.20
##  4         4.60        3.10
##  5         5.00        3.60
##  6         5.40        3.90
##  7         4.60        3.40
##  8         5.00        3.40
##  9         4.40        2.90
## 10         4.90        3.10
## # ... with 140 more rows
…
dados %>% select(Species) %>% table %>% prop.table

## .
##     setosa versicolor  virginica 
##  0.3333333  0.3333333  0.3333333

filter

Seleciona um subconjunto das linhas

dados %>% filter(Species=="setosa")

## # A tibble: 50 x 5
##    Sepal.Length Sepal.Width Petal.Length Petal.Width Species
##           <dbl>       <dbl>        <dbl>       <dbl> <chr>  
##  1         5.10        3.50         1.40       0.200 setosa 
##  2         4.90        3.00         1.40       0.200 setosa 
##  3         4.70        3.20         1.30       0.200 setosa 
##  4         4.60        3.10         1.50       0.200 setosa 
##  5         5.00        3.60         1.40       0.200 setosa 
##  6         5.40        3.90         1.70       0.400 setosa 
##  7         4.60        3.40         1.40       0.300 setosa 
##  8         5.00        3.40         1.50       0.200 setosa 
##  9         4.40        2.90         1.40       0.200 setosa 
## 10         4.90        3.10         1.50       0.100 setosa 
## # ... with 40 more rows
…
mutate

Cria novas variáveis.

dados <- dados %>% mutate(SepalMaisPetalLength=Sepal.Length+Petal.Length,
                          areaSepala=Sepal.Length*Sepal.Width)

dados %>% select(SepalMaisPetalLength,areaSepala)

## # A tibble: 150 x 2
##    SepalMaisPetalLength areaSepala
##                   <dbl>      <dbl>
##  1                 6.50       17.8
##  2                 6.30       14.7
##  3                 6.00       15.0
##  4                 6.10       14.3
##  5                 6.40       18.0
##  6                 7.10       21.1
##  7                 6.00       15.6
##  8                 6.50       17.0
##  9                 5.80       12.8
## 10                 6.40       15.2
## # ... with 140 more rows

arrange

Ordena o banco

dados %>% arrange(Sepal.Length)

## # A tibble: 150 x 7
##    Sepal.Length Sepal.Width Petal.Length Petal.Width Species
##           <dbl>       <dbl>        <dbl>       <dbl> <chr>  
##  1         4.30        3.00         1.10       0.100 setosa 
##  2         4.40        2.90         1.40       0.200 setosa 
##  3         4.40        3.00         1.30       0.200 setosa 
##  4         4.40        3.20         1.30       0.200 setosa 
##  5         4.50        2.30         1.30       0.300 setosa 
##  6         4.60        3.10         1.50       0.200 setosa 
##  7         4.60        3.40         1.40       0.300 setosa 
##  8         4.60        3.60         1.00       0.200 setosa 
##  9         4.60        3.20         1.40       0.200 setosa 
## 10         4.70        3.20         1.30       0.200 setosa 
## # ... with 140 more rows, and 2 more variables:
## #   SepalMaisPetalLength <dbl>, areaSepala <dbl>

dados <- dados %>% arrange(Species,Sepal.Length)
dados

## # A tibble: 150 x 7
##    Sepal.Length Sepal.Width Petal.Length Petal.Width Species
##           <dbl>       <dbl>        <dbl>       <dbl> <chr>  
##  1         4.30        3.00         1.10       0.100 setosa 
##  2         4.40        2.90         1.40       0.200 setosa 
##  3         4.40        3.00         1.30       0.200 setosa 
##  4         4.40        3.20         1.30       0.200 setosa 
##  5         4.50        2.30         1.30       0.300 setosa 
##  6         4.60        3.10         1.50       0.200 setosa 
##  7         4.60        3.40         1.40       0.300 setosa 
##  8         4.60        3.60         1.00       0.200 setosa 
##  9         4.60        3.20         1.40       0.200 setosa 
## 10         4.70        3.20         1.30       0.200 setosa 
## # ... with 140 more rows, and 2 more variables:
## #   SepalMaisPetalLength <dbl>, areaSepala <dbl>
…
